<?xml version="1.0" encoding="UTF-8"?>
<svg xmlns="http://www.w3.org/2000/svg" xmlns:xlink="http://www.w3.org/1999/xlink" width="24pt" height="24pt" viewBox="0 0 24 24" version="1.1">
<g id="surface2547215">
<path style=" stroke:none;fill-rule:nonzero;fill:rgb(10.196078%,73.72549%,61.176471%);fill-opacity:1;" d="M 4.007812 3 C 2.917969 3 2.007812 3.90625 2.007812 5 L 2 23 L 6 19 L 20 19 C 21.09375 19 22 18.09375 22 17 L 22 5 C 22 3.90625 21.09375 3 20 3 Z M 4.007812 5 L 20 5 L 20 17 L 5.171875 17 L 4.003906 18.167969 Z M 11 7 L 11 9 L 13 9 L 13 7 Z M 11 11 L 11 15 L 13 15 L 13 11 Z M 11 11 "/>
</g>
</svg>
